{
  "name": "boot-mes-example",
  "version": "0.1.0",
  "private": true,
  "dependencies": {
    "react": "^16.8.6",
    "react-dom": "^16.8.6",
    "react-scripts": "3.0.1",
    "react-router-dom": "^5.0.1",
    "mobx": "4.12.0",
    "mobx-react": "^6.1.1",
    "semantic-ui-react": "^0.87.3",
    "semantic-ui-css": "2.4.1"
  },
  "devDependencies": {
    "react-app-rewired": "^2.1.3",
    "@babel/core": "7.4.3",
    "@babel/plugin-proposal-class-properties": "^7.4.4",
    "@babel/plugin-proposal-decorators": "^7.4.4"
  },
  "scripts": {
    "start": "react-app-rewired start",
    "build": "react-app-rewired build",
    "eject": "react-scripts eject"
  },
  "eslintConfig": {
    "extends": "react-app"
  },
  "browserslist": {
    "production": [
      ">0.2%",
      "not dead",
      "not op_mini all"
    ],
    "development": [
      "last 1 chrome version",
      "last 1 firefox version",
      "last 1 safari version"
    ]
  }
}
